%YAML 1.1
%TAG !u! tag:unity3d.com,2011:
--- !u!78 &1
TagManager:
  serializedVersion: 2
  tags:
  - Path
  - Obstacle
  - Token
  - EnemyLine
  - Enemy
  - CameraRig
  - Spawner
  - Yellow
  - Red
  - Bonus
  - FinishLine
  layers:
  - Default
  - TransparentFX
  - Ignore Raycast
  - 
  - Water
  - UI
  - 
  - 
  - PostProcessing
  - Ground
  - Environment
  - Track
  - CrashObject
  - Kart
  - TrainingCheckpoints
  - Enemy
  - 
  - 
  - 
  - 
  - 
  - 
  - 
  - 
  - 
  - 
  - 
  - 
  - 
  - 
  - 
  - 
  m_SortingLayers:
  - name: Default
    uniqueID: 0
    locked: 0
